%YAML 1.1
%TAG !u! tag:unity3d.com,2011:
--- !u!29 &1
OcclusionCullingSettings:
  m_ObjectHideFlags: 0
  serializedVersion: 2
  m_OcclusionBakeSettings:
    smallestOccluder: 5
    smallestHole: 0.25
    backfaceThreshold: 100
  m_SceneGUID: 00000000000000000000000000000000
  m_OcclusionCullingData: {fileID: 0}
--- !u!104 &2
RenderSettings:
  m_ObjectHideFlags: 0
  serializedVersion: 9
  m_Fog: 0
  m_FogColor: {r: 0.5, g: 0.5, b: 0.5, a: 1}
  m_FogMode: 3
  m_FogDensity: 0.01
  m_LinearFogStart: 0
  m_LinearFogEnd: 300
  m_AmbientSkyColor: {r: 0.212, g: 0.227, b: 0.259, a: 1}
  m_AmbientEquatorColor: {r: 0.114, g: 0.125, b: 0.133, a: 1}
  m_AmbientGroundColor: {r: 0.047, g: 0.043, b: 0.035, a: 1}
  m_AmbientIntensity: 1
  m_AmbientMode: 0
  m_SubtractiveShadowColor: {r: 0.42, g: 0.478, b: 0.627, a: 1}
  m_SkyboxMaterial: {fileID: 10304, guid: 0000000000000000f000000000000000, type: 0}
  m_HaloStrength: 0.5
  m_FlareStrength: 1
  m_FlareFadeSpeed: 3
  m_HaloTexture: {fileID: 0}
  m_SpotCookie: {fileID: 10001, guid: 0000000000000000e000000000000000, type: 0}
  m_DefaultReflectionMode: 0
  m_DefaultReflectionResolution: 128
  m_ReflectionBounces: 1
  m_ReflectionIntensity: 1
  m_CustomReflection: {fileID: 0}
  m_Sun: {fileID: 0}
  m_IndirectSpecularColor: {r: 0, g: 0, b: 0, a: 1}
  m_UseRadianceAmbientProbe: 0
--- !u!157 &3
LightmapSettings:
  m_ObjectHideFlags: 0
  serializedVersion: 12
  m_GIWorkflowMode: 1
  m_GISettings:
    serializedVersion: 2
    m_BounceScale: 1
    m_IndirectOutputScale: 1
    m_AlbedoBoost: 1
    m_EnvironmentLightingMode: 0
    m_EnableBakedLightmaps: 1
    m_EnableRealtimeLightmaps: 0
  m_LightmapEditorSettings:
    serializedVersion: 12
    m_Resolution: 2
    m_BakeResolution: 40
    m_AtlasSize: 1024
    m_AO: 0
    m_AOMaxDistance: 1
    m_CompAOExponent: 1
    m_CompAOExponentDirect: 0
    m_ExtractAmbientOcclusion: 0
    m_Padding: 2
    m_LightmapParameters: {fileID: 0}
    m_LightmapsBakeMode: 1
    m_TextureCompression: 1
    m_FinalGather: 0
    m_FinalGatherFiltering: 1
    m_FinalGatherRayCount: 256
    m_ReflectionCompression: 2
    m_MixedBakeMode: 2
    m_BakeBackend: 1
    m_PVRSampling: 1
    m_PVRDirectSampleCount: 32
    m_PVRSampleCount: 512
    m_PVRBounces: 2
    m_PVREnvironmentSampleCount: 256
    m_PVREnvironmentReferencePointCount: 2048
    m_PVRFilteringMode: 1
    m_PVRDenoiserTypeDirect: 1
    m_PVRDenoiserTypeIndirect: 1
    m_PVRDenoiserTypeAO: 1
    m_PVRFilterTypeDirect: 0
    m_PVRFilterTypeIndirect: 0
    m_PVRFilterTypeAO: 0
    m_PVREnvironmentMIS: 1
    m_PVRCulling: 1
    m_PVRFilteringGaussRadiusDirect: 1
    m_PVRFilteringGaussRadiusIndirect: 5
    m_PVRFilteringGaussRadiusAO: 2
    m_PVRFilteringAtrousPositionSigmaDirect: 0.5
    m_PVRFilteringAtrousPositionSigmaIndirect: 2
    m_PVRFilteringAtrousPositionSigmaAO: 1
    m_ExportTrainingData: 0
    m_TrainingDataDestination: TrainingData
    m_LightProbeSampleCountMultiplier: 4
  m_LightingDataAsset: {fileID: 0}
  m_LightingSettings: {fileID: 0}
--- !u!196 &4
NavMeshSettings:
  serializedVersion: 2
  m_ObjectHideFlags: 0
  m_BuildSettings:
    serializedVersion: 3
    agentTypeID: 0
    agentRadius: 0.5
    agentHeight: 2
    agentSlope: 45
    agentClimb: 0.4
    ledgeDropHeight: 0
    maxJumpAcrossDistance: 0
    minRegionArea: 2
    manualCellSize: 0
    cellSize: 0.16666667
    manualTileSize: 0
    tileSize: 256
    buildHeightMesh: 0
    maxJobWorkers: 0
    preserveTilesOutsideBounds: 0
    debug:
      m_Flags: 0
  m_NavMeshData: {fileID: 0}
--- !u!1001 &978645768
PrefabInstance:
  m_ObjectHideFlags: 0
  serializedVersion: 2
  m_Modification:
    serializedVersion: 3
    m_TransformParent: {fileID: 0}
    m_Modifications:
    - target: {fileID: 2093837581990801294, guid: fab466b7b440717459917c5840584e9d,
        type: 3}
      propertyPath: radius
      value: 0.02
      objectReference: {fileID: 0}
    - target: {fileID: 2093837581990801294, guid: fab466b7b440717459917c5840584e9d,
        type: 3}
      propertyPath: buttonDown
      value: 1
      objectReference: {fileID: 0}
    - target: {fileID: 5810851693304974115, guid: fab466b7b440717459917c5840584e9d,
        type: 3}
      propertyPath: m_Name
      value: XRController_Rgt
      objectReference: {fileID: 0}
    - target: {fileID: 8374887007908409316, guid: fab466b7b440717459917c5840584e9d,
        type: 3}
      propertyPath: m_PoseSource
      value: 5
      objectReference: {fileID: 0}
    - target: {fileID: 8374887007908409316, guid: fab466b7b440717459917c5840584e9d,
        type: 3}
      propertyPath: m_UseRelativeTransform
      value: 1
      objectReference: {fileID: 0}
    - target: {fileID: 8713910221866920665, guid: fab466b7b440717459917c5840584e9d,
        type: 3}
      propertyPath: m_RootOrder
      value: 2
      objectReference: {fileID: 0}
    - target: {fileID: 8713910221866920665, guid: fab466b7b440717459917c5840584e9d,
        type: 3}
      propertyPath: m_LocalScale.x
      value: 0.05
      objectReference: {fileID: 0}
    - target: {fileID: 8713910221866920665, guid: fab466b7b440717459917c5840584e9d,
        type: 3}
      propertyPath: m_LocalScale.y
      value: 0.05
      objectReference: {fileID: 0}
    - target: {fileID: 8713910221866920665, guid: fab466b7b440717459917c5840584e9d,
        type: 3}
      propertyPath: m_LocalScale.z
      value: 0.05
      objectReference: {fileID: 0}
    - target: {fileID: 8713910221866920665, guid: fab466b7b440717459917c5840584e9d,
        type: 3}
      propertyPath: m_LocalPosition.x
      value: 0
      objectReference: {fileID: 0}
    - target: {fileID: 8713910221866920665, guid: fab466b7b440717459917c5840584e9d,
        type: 3}
      propertyPath: m_LocalPosition.y
      value: 0
      objectReference: {fileID: 0}
    - target: {fileID: 8713910221866920665, guid: fab466b7b440717459917c5840584e9d,
        type: 3}
      propertyPath: m_LocalPosition.z
      value: 0
      objectReference: {fileID: 0}
    - target: {fileID: 8713910221866920665, guid: fab466b7b440717459917c5840584e9d,
        type: 3}
      propertyPath: m_LocalRotation.w
      value: 1
      objectReference: {fileID: 0}
    - target: {fileID: 8713910221866920665, guid: fab466b7b440717459917c5840584e9d,
        type: 3}
      propertyPath: m_LocalRotation.x
      value: 0
      objectReference: {fileID: 0}
    - target: {fileID: 8713910221866920665, guid: fab466b7b440717459917c5840584e9d,
        type: 3}
      propertyPath: m_LocalRotation.y
      value: 0
      objectReference: {fileID: 0}
    - target: {fileID: 8713910221866920665, guid: fab466b7b440717459917c5840584e9d,
        type: 3}
      propertyPath: m_LocalRotation.z
      value: 0
      objectReference: {fileID: 0}
    - target: {fileID: 8713910221866920665, guid: fab466b7b440717459917c5840584e9d,
        type: 3}
      propertyPath: m_LocalEulerAnglesHint.x
      value: 0
      objectReference: {fileID: 0}
    - target: {fileID: 8713910221866920665, guid: fab466b7b440717459917c5840584e9d,
        type: 3}
      propertyPath: m_LocalEulerAnglesHint.y
      value: 0
      objectReference: {fileID: 0}
    - target: {fileID: 8713910221866920665, guid: fab466b7b440717459917c5840584e9d,
        type: 3}
      propertyPath: m_LocalEulerAnglesHint.z
      value: 0
      objectReference: {fileID: 0}
    m_RemovedComponents:
    - {fileID: 8374887007908409316, guid: fab466b7b440717459917c5840584e9d, type: 3}
    - {fileID: 2093837581990801294, guid: fab466b7b440717459917c5840584e9d, type: 3}
    m_RemovedGameObjects: []
    m_AddedGameObjects: []
    m_AddedComponents: []
  m_SourcePrefab: {fileID: 100100000, guid: fab466b7b440717459917c5840584e9d, type: 3}
--- !u!1 &1210967361
GameObject:
  m_ObjectHideFlags: 0
  m_CorrespondingSourceObject: {fileID: 0}
  m_PrefabInstance: {fileID: 0}
  m_PrefabAsset: {fileID: 0}
  serializedVersion: 6
  m_Component:
  - component: {fileID: 1210967363}
  - component: {fileID: 1210967364}
  - component: {fileID: 1210967365}
  m_Layer: 0
  m_Name: LatticeGrid
  m_TagString: Untagged
  m_Icon: {fileID: 0}
  m_NavMeshLayer: 0
  m_StaticEditorFlags: 0
  m_IsActive: 1
--- !u!4 &1210967363
Transform:
  m_ObjectHideFlags: 0
  m_CorrespondingSourceObject: {fileID: 0}
  m_PrefabInstance: {fileID: 0}
  m_PrefabAsset: {fileID: 0}
  m_GameObject: {fileID: 1210967361}
  m_LocalRotation: {x: -0, y: -0, z: -0, w: 1}
  m_LocalPosition: {x: -2.5, y: 0, z: -2.5}
  m_LocalScale: {x: 1, y: 1, z: 1}
  m_ConstrainProportionsScale: 0
  m_Children: []
  m_Father: {fileID: 0}
  m_RootOrder: 3
  m_LocalEulerAnglesHint: {x: 0, y: 0, z: 0}
--- !u!114 &1210967364
MonoBehaviour:
  m_ObjectHideFlags: 0
  m_CorrespondingSourceObject: {fileID: 0}
  m_PrefabInstance: {fileID: 0}
  m_PrefabAsset: {fileID: 0}
  m_GameObject: {fileID: 1210967361}
  m_Enabled: 1
  m_EditorHideFlags: 0
  m_Script: {fileID: 11500000, guid: 932b93421b96be240a4be962fabb91e6, type: 3}
  m_Name: 
  m_EditorClassIdentifier: 
  gridDimensions:
    x: 15
    y: 12
    z: 15
  gapOfPoints: 0.33
  scaleOfPoints: 0.0015
  gridPointPrefab: {fileID: 4967105793620696525, guid: 7c2bebf9032278a46b0768736483105e,
    type: 3}
  lineSegmentPrefab: {fileID: 4247311060071672998, guid: af541dc0f7f7c824d803806e147fdf4c,
    type: 3}
--- !u!114 &1210967365
MonoBehaviour:
  m_ObjectHideFlags: 0
  m_CorrespondingSourceObject: {fileID: 0}
  m_PrefabInstance: {fileID: 0}
  m_PrefabAsset: {fileID: 0}
  m_GameObject: {fileID: 1210967361}
  m_Enabled: 1
  m_EditorHideFlags: 0
  m_Script: {fileID: 11500000, guid: b2d71bad56d94cc4a626de6343806315, type: 3}
  m_Name: 
  m_EditorClassIdentifier: 
  basis:
    c0:
      x: 1
      y: 0
      z: 0
    c1:
      x: 0
      y: 1
      z: 0
    c2:
      x: 0
      y: 0
      z: 1
  overrideRectangular: 1
  overrideEquilateral: 0
--- !u!1001 &1421201521
PrefabInstance:
  m_ObjectHideFlags: 0
  serializedVersion: 2
  m_Modification:
    serializedVersion: 3
    m_TransformParent: {fileID: 0}
    m_Modifications:
    - target: {fileID: 2093837581990801294, guid: fab466b7b440717459917c5840584e9d,
        type: 3}
      propertyPath: isLeft
      value: 1
      objectReference: {fileID: 0}
    - target: {fileID: 2093837581990801294, guid: fab466b7b440717459917c5840584e9d,
        type: 3}
      propertyPath: radius
      value: 0.02
      objectReference: {fileID: 0}
    - target: {fileID: 2093837581990801294, guid: fab466b7b440717459917c5840584e9d,
        type: 3}
      propertyPath: buttonDown
      value: 1
      objectReference: {fileID: 0}
    - target: {fileID: 5810851693304974115, guid: fab466b7b440717459917c5840584e9d,
        type: 3}
      propertyPath: m_Name
      value: XRController_Lft
      objectReference: {fileID: 0}
    - target: {fileID: 8568688009151651760, guid: fab466b7b440717459917c5840584e9d,
        type: 3}
      propertyPath: isLeft
      value: 1
      objectReference: {fileID: 0}
    - target: {fileID: 8713910221866920665, guid: fab466b7b440717459917c5840584e9d,
        type: 3}
      propertyPath: m_RootOrder
      value: 1
      objectReference: {fileID: 0}
    - target: {fileID: 8713910221866920665, guid: fab466b7b440717459917c5840584e9d,
        type: 3}
      propertyPath: m_LocalPosition.x
      value: 0
      objectReference: {fileID: 0}
    - target: {fileID: 8713910221866920665, guid: fab466b7b440717459917c5840584e9d,
        type: 3}
      propertyPath: m_LocalPosition.y
      value: 0
      objectReference: {fileID: 0}
    - target: {fileID: 8713910221866920665, guid: fab466b7b440717459917c5840584e9d,
        type: 3}
      propertyPath: m_LocalPosition.z
      value: 0
      objectReference: {fileID: 0}
    - target: {fileID: 8713910221866920665, guid: fab466b7b440717459917c5840584e9d,
        type: 3}
      propertyPath: m_LocalRotation.w
      value: 1
      objectReference: {fileID: 0}
    - target: {fileID: 8713910221866920665, guid: fab466b7b440717459917c5840584e9d,
        type: 3}
      propertyPath: m_LocalRotation.x
      value: 0
      objectReference: {fileID: 0}
    - target: {fileID: 8713910221866920665, guid: fab466b7b440717459917c5840584e9d,
        type: 3}
      propertyPath: m_LocalRotation.y
      value: 0
      objectReference: {fileID: 0}
    - target: {fileID: 8713910221866920665, guid: fab466b7b440717459917c5840584e9d,
        type: 3}
      propertyPath: m_LocalRotation.z
      value: 0
      objectReference: {fileID: 0}
    - target: {fileID: 8713910221866920665, guid: fab466b7b440717459917c5840584e9d,
        type: 3}
      propertyPath: m_LocalEulerAnglesHint.x
      value: 0
      objectReference: {fileID: 0}
    - target: {fileID: 8713910221866920665, guid: fab466b7b440717459917c5840584e9d,
        type: 3}
      propertyPath: m_LocalEulerAnglesHint.y
      value: 0
      objectReference: {fileID: 0}
    - target: {fileID: 8713910221866920665, guid: fab466b7b440717459917c5840584e9d,
        type: 3}
      propertyPath: m_LocalEulerAnglesHint.z
      value: 0
      objectReference: {fileID: 0}
    m_RemovedComponents:
    - {fileID: 8374887007908409316, guid: fab466b7b440717459917c5840584e9d, type: 3}
    - {fileID: 2093837581990801294, guid: fab466b7b440717459917c5840584e9d, type: 3}
    m_RemovedGameObjects: []
    m_AddedGameObjects: []
    m_AddedComponents: []
  m_SourcePrefab: {fileID: 100100000, guid: fab466b7b440717459917c5840584e9d, type: 3}
--- !u!1001 &228029835147700651
PrefabInstance:
  m_ObjectHideFlags: 0
  serializedVersion: 2
  m_Modification:
    serializedVersion: 3
    m_TransformParent: {fileID: 0}
    m_Modifications:
    - target: {fileID: 3303367960065028529, guid: 5941f0d4c20ddbbe4b3a46b0d5f1d681,
        type: 3}
      propertyPath: m_Name
      value: XR HMD
      objectReference: {fileID: 0}
    - target: {fileID: 5122794972205270057, guid: 5941f0d4c20ddbbe4b3a46b0d5f1d681,
        type: 3}
      propertyPath: m_RootOrder
      value: 0
      objectReference: {fileID: 0}
    - target: {fileID: 5122794972205270057, guid: 5941f0d4c20ddbbe4b3a46b0d5f1d681,
        type: 3}
      propertyPath: m_LocalPosition.x
      value: 0
      objectReference: {fileID: 0}
    - target: {fileID: 5122794972205270057, guid: 5941f0d4c20ddbbe4b3a46b0d5f1d681,
        type: 3}
      propertyPath: m_LocalPosition.y
      value: 0
      objectReference: {fileID: 0}
    - target: {fileID: 5122794972205270057, guid: 5941f0d4c20ddbbe4b3a46b0d5f1d681,
        type: 3}
      propertyPath: m_LocalPosition.z
      value: 0
      objectReference: {fileID: 0}
    - target: {fileID: 5122794972205270057, guid: 5941f0d4c20ddbbe4b3a46b0d5f1d681,
        type: 3}
      propertyPath: m_LocalRotation.w
      value: 1
      objectReference: {fileID: 0}
    - target: {fileID: 5122794972205270057, guid: 5941f0d4c20ddbbe4b3a46b0d5f1d681,
        type: 3}
      propertyPath: m_LocalRotation.x
      value: 0
      objectReference: {fileID: 0}
    - target: {fileID: 5122794972205270057, guid: 5941f0d4c20ddbbe4b3a46b0d5f1d681,
        type: 3}
      propertyPath: m_LocalRotation.y
      value: 0
      objectReference: {fileID: 0}
    - target: {fileID: 5122794972205270057, guid: 5941f0d4c20ddbbe4b3a46b0d5f1d681,
        type: 3}
      propertyPath: m_LocalRotation.z
      value: 0
      objectReference: {fileID: 0}
    - target: {fileID: 5122794972205270057, guid: 5941f0d4c20ddbbe4b3a46b0d5f1d681,
        type: 3}
      propertyPath: m_LocalEulerAnglesHint.x
      value: 0
      objectReference: {fileID: 0}
    - target: {fileID: 5122794972205270057, guid: 5941f0d4c20ddbbe4b3a46b0d5f1d681,
        type: 3}
      propertyPath: m_LocalEulerAnglesHint.y
      value: 0
      objectReference: {fileID: 0}
    - target: {fileID: 5122794972205270057, guid: 5941f0d4c20ddbbe4b3a46b0d5f1d681,
        type: 3}
      propertyPath: m_LocalEulerAnglesHint.z
      value: 0
      objectReference: {fileID: 0}
    m_RemovedComponents:
    - {fileID: -4067395104215766673, guid: 5941f0d4c20ddbbe4b3a46b0d5f1d681, type: 3}
    m_RemovedGameObjects: []
    m_AddedGameObjects: []
    m_AddedComponents: []
  m_SourcePrefab: {fileID: 100100000, guid: 5941f0d4c20ddbbe4b3a46b0d5f1d681, type: 3}
